# List of assigned trustvalues, created Mon 29 Aug 2022 11:34:42 AM UTC
# (Use "gpg --import-ownertrust" to restore them)
D06C4E38B09C54BB9064CDC3ED837B675C4C0EDA:6:
DB1428BFE7AB7B48F2A343A106D4B8BF36C53008:6:
9F75F1AA10C005EFD5DF769116BA179F6150109A:6:
